<svg xmlns="http://www.w3.org/2000/svg" width="8.467mm" height="8.467mm" viewBox="0 0 24 24">
  <title>dislike</title>
  <g>
    <path class="a" d="M20.694,4a.945.945,0,0,0-1,1V15a1,1,0,0,0,2,0V5A.945.945,0,0,0,20.694,4Z"/>
    <path class="a" d="M15.794,4h-6.9a4.6,4.6,0,0,0-4.3,2.6l-2.4,4.9a3.085,3.085,0,0,0-.5,1.8v1a2.8,2.8,0,0,0,2.9,2.7h4.6v3.2a1.88,1.88,0,0,0,1.9,1.8h.2a3.456,3.456,0,0,0,2-.7l4.5-4.1a2.463,2.463,0,0,0,.9-1.9V6.7A2.8,2.8,0,0,0,15.794,4Z"/>
  </g>
  <g>
    <path d="M20.694,4a.945.945,0,0,0-1,1V15a1,1,0,0,0,2,0V5A.945.945,0,0,0,20.694,4Z"/>
    <path d="M15.794,4h-6.9a4.6,4.6,0,0,0-4.3,2.6l-2.4,4.9a3.085,3.085,0,0,0-.5,1.8v1a2.8,2.8,0,0,0,2.9,2.7h4.6v3.2a1.88,1.88,0,0,0,1.9,1.8h.2a3.456,3.456,0,0,0,2-.7l4.5-4.1a2.463,2.463,0,0,0,.9-1.9V6.7A2.8,2.8,0,0,0,15.794,4Zm.9,11.2a.52.52,0,0,1-.2.4l-4.5,4.1a.367.367,0,0,1-.3.1.472.472,0,0,1-.5-.5V16.7a1.88,1.88,0,0,0-1.9-1.8h-4.7a.808.808,0,0,1-.9-.7v-1a2.92,2.92,0,0,1,.2-.9l2.4-4.9A3.121,3.121,0,0,1,8.894,6h6.9a.808.808,0,0,1,.9.7Z"/>
  </g>
</svg>
