<svg width="24" height="24" viewBox="0 0 24 24" fill="none" xmlns="http://www.w3.org/2000/svg">
<path fill-rule="evenodd" clip-rule="evenodd" d="M20 3H4V5L2 5V15H4V5L19.9 5V15H12V17H10V19H8V21H10V19H12V17L20 17V15H22V5L20 5V3ZM18 7H6V9H18V7ZM6 11H13V13H6V11Z" fill="black"/>
<rect x="6" y="21" width="2" height="2" fill="black"/>
<rect x="4" y="15" width="2" height="6" fill="black"/>
</svg>
